^C:\USERS\NHTI\DESKTOP\LAB03_SP2012\AG121_LAB03_DYNAMICARRAY\AG121_LAB03_DYNAMICARRAY\AG121_LAB03_DYNAMICARRAY.CPP
/c /ZI /nologo /W3 /WX- /Od /Oy- /D WIN32 /D _DEBUG /D _CONSOLE /D _UNICODE /D UNICODE /Gm /EHsc /RTC1 /MDd /GS /fp:precise /Zc:wchar_t /Zc:forScope /Fo"DEBUG\\" /Fd"DEBUG\VC120.PDB" /Gd /TP /analyze- C:\USERS\NHTI\DESKTOP\LAB03_SP2012\AG121_LAB03_DYNAMICARRAY\AG121_LAB03_DYNAMICARRAY\AG121_LAB03_DYNAMICARRAY.CPP
^C:\USERS\NHTI\DESKTOP\LAB03_SP2012\AG121_LAB03_DYNAMICARRAY\AG121_LAB03_DYNAMICARRAY\EASYARRAY.CPP
/c /ZI /nologo /W3 /WX- /Od /Oy- /D WIN32 /D _DEBUG /D _CONSOLE /D _UNICODE /D UNICODE /Gm /EHsc /RTC1 /MDd /GS /fp:precise /Zc:wchar_t /Zc:forScope /Fo"DEBUG\\" /Fd"DEBUG\VC120.PDB" /Gd /TP /analyze- C:\USERS\NHTI\DESKTOP\LAB03_SP2012\AG121_LAB03_DYNAMICARRAY\AG121_LAB03_DYNAMICARRAY\EASYARRAY.CPP
^F:\LAB03_SP2012\AG121_LAB03_DYNAMICARRAY\AG121_LAB03_DYNAMICARRAY\AG121_LAB03_DYNAMICARRAY.CPP
/c /ZI /nologo /W3 /WX- /Od /Oy- /D WIN32 /D _DEBUG /D _CONSOLE /D _UNICODE /D UNICODE /Gm /EHsc /RTC1 /MDd /GS /fp:precise /Zc:wchar_t /Zc:forScope /Fo"DEBUG\\" /Fd"DEBUG\VC120.PDB" /Gd /TP /analyze- F:\LAB03_SP2012\AG121_LAB03_DYNAMICARRAY\AG121_LAB03_DYNAMICARRAY\AG121_LAB03_DYNAMICARRAY.CPP
^F:\LAB03_SP2012\AG121_LAB03_DYNAMICARRAY\AG121_LAB03_DYNAMICARRAY\EASYARRAY.CPP
/c /ZI /nologo /W3 /WX- /Od /Oy- /D WIN32 /D _DEBUG /D _CONSOLE /D _UNICODE /D UNICODE /Gm /EHsc /RTC1 /MDd /GS /fp:precise /Zc:wchar_t /Zc:forScope /Fo"DEBUG\\" /Fd"DEBUG\VC120.PDB" /Gd /TP /analyze- F:\LAB03_SP2012\AG121_LAB03_DYNAMICARRAY\AG121_LAB03_DYNAMICARRAY\EASYARRAY.CPP
