^C:\USERS\MICHAEL\DESKTOP\CP125\HOMEWORK\HW_2_FIND_PRIME\HW_2_FIND_PRIME\MAIN.CPP
C:\USERS\MICHAEL\DESKTOP\CP125\HOMEWORK\HW_2_FIND_PRIME\HW_2_FIND_PRIME\DEBUG\VC140.PDB
C:\USERS\MICHAEL\DESKTOP\CP125\HOMEWORK\HW_2_FIND_PRIME\HW_2_FIND_PRIME\DEBUG\VC140.IDB
C:\USERS\MICHAEL\DESKTOP\CP125\HOMEWORK\HW_2_FIND_PRIME\HW_2_FIND_PRIME\DEBUG\MAIN.OBJ
