^C:\USERS\MICHAEL\DESKTOP\CP125\HOMEWORK\HW_2_FIND_PRIME\HW_2_FIND_PRIME\DEBUG\MAIN.OBJ
C:\USERS\MICHAEL\DESKTOP\CP125\HOMEWORK\HW_2_FIND_PRIME\DEBUG\HW_2_FIND_PRIME.ILK
C:\USERS\MICHAEL\DESKTOP\CP125\HOMEWORK\HW_2_FIND_PRIME\DEBUG\HW_2_FIND_PRIME.EXE
C:\USERS\MICHAEL\DESKTOP\CP125\HOMEWORK\HW_2_FIND_PRIME\DEBUG\HW_2_FIND_PRIME.PDB
