^C:\USERS\MICHAEL\DESKTOP\CP125\HOMEWORK\LAB_04_MIN\LAB_04_MIN\CGAMEITEM.CPP
/c /ZI /nologo /W3 /WX- /sdl /Od /Oy- /D WIN32 /D _DEBUG /D _CONSOLE /D _UNICODE /D UNICODE /Gm /EHsc /RTC1 /MDd /GS /fp:precise /Zc:wchar_t /Zc:forScope /Zc:inline /Fo"DEBUG\\" /Fd"DEBUG\VC140.PDB" /Gd /TP /analyze- C:\USERS\MICHAEL\DESKTOP\CP125\HOMEWORK\LAB_04_MIN\LAB_04_MIN\CGAMEITEM.CPP
^C:\USERS\MICHAEL\DESKTOP\CP125\HOMEWORK\LAB_04_MIN\LAB_04_MIN\ITEMTESTER.CPP
/c /ZI /nologo /W3 /WX- /sdl /Od /Oy- /D WIN32 /D _DEBUG /D _CONSOLE /D _UNICODE /D UNICODE /Gm /EHsc /RTC1 /MDd /GS /fp:precise /Zc:wchar_t /Zc:forScope /Zc:inline /Fo"DEBUG\\" /Fd"DEBUG\VC140.PDB" /Gd /TP /analyze- C:\USERS\MICHAEL\DESKTOP\CP125\HOMEWORK\LAB_04_MIN\LAB_04_MIN\ITEMTESTER.CPP
