^C:\USERS\MICHAEL\DESKTOP\CP125\LAB\LAB 4\LAB 4\DEBUG\CGAMEITEM.OBJ|C:\USERS\MICHAEL\DESKTOP\CP125\LAB\LAB 4\LAB 4\DEBUG\ITEMTESTER.OBJ
C:\USERS\MICHAEL\DESKTOP\CP125\LAB\LAB 4\DEBUG\LAB 4.ILK
C:\USERS\MICHAEL\DESKTOP\CP125\LAB\LAB 4\DEBUG\LAB 4.EXE
C:\USERS\MICHAEL\DESKTOP\CP125\LAB\LAB 4\DEBUG\LAB 4.PDB
