^C:\USERS\MICHAEL\DESKTOP\CP125\HOMEWORK\USEFUL_FUNCTIONS\USEFUL_FUNCTIONS\SOURCE.CPP
C:\USERS\MICHAEL\DESKTOP\CP125\HOMEWORK\USEFUL_FUNCTIONS\USEFUL_FUNCTIONS\DEBUG\VC140.PDB
C:\USERS\MICHAEL\DESKTOP\CP125\HOMEWORK\USEFUL_FUNCTIONS\USEFUL_FUNCTIONS\DEBUG\VC140.IDB
C:\USERS\MICHAEL\DESKTOP\CP125\HOMEWORK\USEFUL_FUNCTIONS\USEFUL_FUNCTIONS\DEBUG\SOURCE.OBJ
