^C:\USERS\MICHAEL\DESKTOP\CP125\LAB\LAB 6\LAB 6\CIRCULARQUEUE.CPP
C:\USERS\MICHAEL\DESKTOP\CP125\LAB\LAB 6\LAB 6\DEBUG\VC140.PDB
C:\USERS\MICHAEL\DESKTOP\CP125\LAB\LAB 6\LAB 6\DEBUG\VC140.IDB
C:\USERS\MICHAEL\DESKTOP\CP125\LAB\LAB 6\LAB 6\DEBUG\CIRCULARQUEUE.OBJ
^C:\USERS\MICHAEL\DESKTOP\CP125\LAB\LAB 6\LAB 6\CIRCULARQUEUE.CPP|C:\USERS\MICHAEL\DESKTOP\CP125\LAB\LAB 6\LAB 6\TESTER.CPP
C:\USERS\MICHAEL\DESKTOP\CP125\LAB\LAB 6\LAB 6\DEBUG\VC140.PDB
C:\USERS\MICHAEL\DESKTOP\CP125\LAB\LAB 6\LAB 6\DEBUG\VC140.IDB
C:\USERS\MICHAEL\DESKTOP\CP125\LAB\LAB 6\LAB 6\DEBUG\CIRCULARQUEUE.OBJ
C:\USERS\MICHAEL\DESKTOP\CP125\LAB\LAB 6\LAB 6\DEBUG\TESTER.OBJ
^C:\USERS\MICHAEL\DESKTOP\CP125\LAB\LAB 6\LAB 6\TESTER.CPP
C:\USERS\MICHAEL\DESKTOP\CP125\LAB\LAB 6\LAB 6\DEBUG\VC140.PDB
