^C:\USERS\KGITLITZ\DOCUMENTS\_ROOT\PROJECTS\CPP\AG121_LAB01_DICE_OOP\AG121_LAB01_DICE_OOP\DEBUG\AG121_LAB01_DICE_OOP.EXE.EMBED.MANIFEST.RES|C:\USERS\KGITLITZ\DOCUMENTS\_ROOT\PROJECTS\CPP\AG121_LAB01_DICE_OOP\AG121_LAB01_DICE_OOP\DEBUG\AG121_LAB01_DICE_OOP.OBJ
C:\USERS\KGITLITZ\DOCUMENTS\_ROOT\PROJECTS\CPP\AG121_LAB01_DICE_OOP\DEBUG\AG121_LAB01_DICE_OOP.ILK
C:\USERS\KGITLITZ\DOCUMENTS\_ROOT\PROJECTS\CPP\AG121_LAB01_DICE_OOP\DEBUG\AG121_LAB01_DICE_OOP.EXE
C:\USERS\KGITLITZ\DOCUMENTS\_ROOT\PROJECTS\CPP\AG121_LAB01_DICE_OOP\AG121_LAB01_DICE_OOP\DEBUG\AG121_LAB01_DICE_OOP.EXE.INTERMEDIATE.MANIFEST
C:\USERS\KGITLITZ\DOCUMENTS\_ROOT\PROJECTS\CPP\AG121_LAB01_DICE_OOP\DEBUG\AG121_LAB01_DICE_OOP.PDB
^C:\USERS\NHTI\DESKTOP\AG121_LAB01_DICE_OOP\AG121_LAB01_DICE_OOP\DEBUG\AG121_LAB01_DICE_OOP.EXE.EMBED.MANIFEST.RES|C:\USERS\NHTI\DESKTOP\AG121_LAB01_DICE_OOP\AG121_LAB01_DICE_OOP\DEBUG\AG121_LAB01_DICE_OOP.OBJ
C:\USERS\NHTI\DESKTOP\AG121_LAB01_DICE_OOP\DEBUG\AG121_LAB01_DICE_OOP.ILK
C:\USERS\NHTI\DESKTOP\AG121_LAB01_DICE_OOP\DEBUG\AG121_LAB01_DICE_OOP.EXE
C:\USERS\NHTI\DESKTOP\AG121_LAB01_DICE_OOP\AG121_LAB01_DICE_OOP\DEBUG\AG121_LAB01_DICE_OOP.EXE.INTERMEDIATE.MANIFEST
C:\USERS\NHTI\DESKTOP\AG121_LAB01_DICE_OOP\DEBUG\AG121_LAB01_DICE_OOP.PDB
