^C:\USERS\KGITLITZ\DOCUMENTS\_ROOT\PROJECTS\CPP\AG121_LAB01_DICE_OOP\AG121_LAB01_DICE_OOP\DEBUG\AG121_LAB01_DICE_OOP.EXE.INTERMEDIATE.MANIFEST
/nologo /verbose /out:"Debug\AG121_Lab01_Dice_OOP.exe.embed.manifest" /manifest Debug\AG121_Lab01_Dice_OOP.exe.intermediate.manifest
^C:\USERS\NHTI\DESKTOP\AG121_LAB01_DICE_OOP\AG121_LAB01_DICE_OOP\DEBUG\AG121_LAB01_DICE_OOP.EXE.INTERMEDIATE.MANIFEST
/nologo /verbose /out:"Debug\AG121_Lab01_Dice_OOP.exe.embed.manifest" /manifest Debug\AG121_Lab01_Dice_OOP.exe.intermediate.manifest
