^C:\USERS\KGITLITZ\DOCUMENTS\_ROOT\PROJECTS\CPP\AG121_LAB01_DICE_OOP\AG121_LAB01_DICE_OOP\DEBUG\AG121_LAB01_DICE_OOP.EXE.INTERMEDIATE.MANIFEST
C:\USERS\KGITLITZ\DOCUMENTS\_ROOT\PROJECTS\CPP\AG121_LAB01_DICE_OOP\AG121_LAB01_DICE_OOP\DEBUG\AG121_LAB01_DICE_OOP.EXE.EMBED.MANIFEST
^C:\USERS\NHTI\DESKTOP\AG121_LAB01_DICE_OOP\AG121_LAB01_DICE_OOP\DEBUG\AG121_LAB01_DICE_OOP.EXE.INTERMEDIATE.MANIFEST
C:\USERS\NHTI\DESKTOP\AG121_LAB01_DICE_OOP\AG121_LAB01_DICE_OOP\DEBUG\AG121_LAB01_DICE_OOP.EXE.EMBED.MANIFEST
