^C:\USERS\KGITLITZ\DOCUMENTS\_ROOT\PROJECTS\CPP\AG121_LAB01_DICE_OOP\AG121_LAB01_DICE_OOP\DEBUG\AG121_LAB01_DICE_OOP_MANIFEST.RC
/nologo /fo"Debug\AG121_Lab01_Dice_OOP.exe.embed.manifest.res" Debug\AG121_Lab01_Dice_OOP_manifest.rc /nologo /fo"Debug\AG121_Lab01_Dice_OOP.exe.embed.manifest.res" C:\USERS\KGITLITZ\DOCUMENTS\_ROOT\PROJECTS\CPP\AG121_LAB01_DICE_OOP\AG121_LAB01_DICE_OOP\DEBUG\AG121_LAB01_DICE_OOP_MANIFEST.RC
^C:\USERS\NHTI\DESKTOP\AG121_LAB01_DICE_OOP\AG121_LAB01_DICE_OOP\DEBUG\AG121_LAB01_DICE_OOP_MANIFEST.RC
/nologo /fo"Debug\AG121_Lab01_Dice_OOP.exe.embed.manifest.res" Debug\AG121_Lab01_Dice_OOP_manifest.rc /nologo /fo"Debug\AG121_Lab01_Dice_OOP.exe.embed.manifest.res" C:\USERS\NHTI\DESKTOP\AG121_LAB01_DICE_OOP\AG121_LAB01_DICE_OOP\DEBUG\AG121_LAB01_DICE_OOP_MANIFEST.RC
