^C:\USERS\KGITLITZ\DOCUMENTS\_ROOT\PROJECTS\CPP\AG121_LAB01_DICE_OOP\AG121_LAB01_DICE_OOP\DEBUG\AG121_LAB01_DICE_OOP_MANIFEST.RC
C:\USERS\KGITLITZ\DOCUMENTS\_ROOT\PROJECTS\CPP\AG121_LAB01_DICE_OOP\AG121_LAB01_DICE_OOP\DEBUG\AG121_LAB01_DICE_OOP.EXE.EMBED.MANIFEST.RES
^C:\USERS\NHTI\DESKTOP\AG121_LAB01_DICE_OOP\AG121_LAB01_DICE_OOP\DEBUG\AG121_LAB01_DICE_OOP_MANIFEST.RC
C:\USERS\NHTI\DESKTOP\AG121_LAB01_DICE_OOP\AG121_LAB01_DICE_OOP\DEBUG\AG121_LAB01_DICE_OOP.EXE.EMBED.MANIFEST.RES
