^C:\USERS\MICHAEL\DESKTOP\CP125\LAB\LAB_10\LAB_10\DEBUG\MAIN.OBJ
/OUT:"C:\USERS\MICHAEL\DESKTOP\CP125\LAB\LAB_10\DEBUG\LAB_10.EXE" /INCREMENTAL /NOLOGO KERNEL32.LIB USER32.LIB GDI32.LIB WINSPOOL.LIB COMDLG32.LIB ADVAPI32.LIB SHELL32.LIB OLE32.LIB OLEAUT32.LIB UUID.LIB ODBC32.LIB ODBCCP32.LIB /MANIFEST /MANIFESTUAC:"level='asInvoker' uiAccess='false'" /manifest:embed /Debug /PDB:"C:\USERS\MICHAEL\DESKTOP\CP125\LAB\LAB_10\DEBUG\LAB_10.PDB" /SUBSYSTEM:CONSOLE /TLBID:1 /DYNAMICBASE /NXCOMPAT /IMPLIB:"C:\USERS\MICHAEL\DESKTOP\CP125\LAB\LAB_10\DEBUG\LAB_10.LIB" /MACHINE:X86 DEBUG\MAIN.OBJ
^C:\USERS\MICHAEL\DESKTOP\CP125\LAB\LAB 10\LAB_10\LAB_10\DEBUG\MAIN.OBJ
/OUT:"C:\USERS\MICHAEL\DESKTOP\CP125\LAB\LAB 10\LAB_10\DEBUG\LAB_10.EXE" /INCREMENTAL /NOLOGO KERNEL32.LIB USER32.LIB GDI32.LIB WINSPOOL.LIB COMDLG32.LIB ADVAPI32.LIB SHELL32.LIB OLE32.LIB OLEAUT32.LIB UUID.LIB ODBC32.LIB ODBCCP32.LIB /MANIFEST /MANIFESTUAC:"level='asInvoker' uiAccess='false'" /manifest:embed /Debug /PDB:"C:\USERS\MICHAEL\DESKTOP\CP125\LAB\LAB 10\LAB_10\DEBUG\LAB_10.PDB" /SUBSYSTEM:CONSOLE /TLBID:1 /DYNAMICBASE /NXCOMPAT /IMPLIB:"C:\USERS\MICHAEL\DESKTOP\CP125\LAB\LAB 10\LAB_10\DEBUG\LAB_10.LIB" /MACHINE:X86 DEBUG\MAIN.OBJ
^C:\USERS\MICHAEL\DESKTOP\CP125\LAB\LAB 10\LAB_10_PART_1\LAB_10\DEBUG\MAIN.OBJ
/OUT:"C:\USERS\MICHAEL\DESKTOP\CP125\LAB\LAB 10\LAB_10_PART_1\DEBUG\LAB_10.EXE" /INCREMENTAL /NOLOGO KERNEL32.LIB USER32.LIB GDI32.LIB WINSPOOL.LIB COMDLG32.LIB ADVAPI32.LIB SHELL32.LIB OLE32.LIB OLEAUT32.LIB UUID.LIB ODBC32.LIB ODBCCP32.LIB /MANIFEST /MANIFESTUAC:"level='asInvoker' uiAccess='false'" /manifest:embed /Debug /PDB:"C:\USERS\MICHAEL\DESKTOP\CP125\LAB\LAB 10\LAB_10_PART_1\DEBUG\LAB_10.PDB" /SUBSYSTEM:CONSOLE /TLBID:1 /DYNAMICBASE /NXCOMPAT /IMPLIB:"C:\USERS\MICHAEL\DESKTOP\CP125\LAB\LAB 10\LAB_10_PART_1\DEBUG\LAB_10.LIB" /MACHINE:X86 DEBUG\MAIN.OBJ
