^C:\USERS\MICHAEL\DESKTOP\CP125\LAB\LAB_10\LAB_10\DEBUG\MAIN.OBJ
C:\USERS\MICHAEL\DESKTOP\CP125\LAB\LAB_10\DEBUG\LAB_10.ILK
C:\USERS\MICHAEL\DESKTOP\CP125\LAB\LAB_10\DEBUG\LAB_10.EXE
C:\USERS\MICHAEL\DESKTOP\CP125\LAB\LAB_10\DEBUG\LAB_10.PDB
^C:\USERS\MICHAEL\DESKTOP\CP125\LAB\LAB 10\LAB_10\LAB_10\DEBUG\MAIN.OBJ
C:\USERS\MICHAEL\DESKTOP\CP125\LAB\LAB 10\LAB_10\DEBUG\LAB_10.ILK
C:\USERS\MICHAEL\DESKTOP\CP125\LAB\LAB 10\LAB_10\DEBUG\LAB_10.EXE
C:\USERS\MICHAEL\DESKTOP\CP125\LAB\LAB 10\LAB_10\DEBUG\LAB_10.PDB
^C:\USERS\MICHAEL\DESKTOP\CP125\LAB\LAB 10\LAB_10_PART_1\LAB_10\DEBUG\MAIN.OBJ
C:\USERS\MICHAEL\DESKTOP\CP125\LAB\LAB 10\LAB_10_PART_1\DEBUG\LAB_10.ILK
C:\USERS\MICHAEL\DESKTOP\CP125\LAB\LAB 10\LAB_10_PART_1\DEBUG\LAB_10.EXE
C:\USERS\MICHAEL\DESKTOP\CP125\LAB\LAB 10\LAB_10_PART_1\DEBUG\LAB_10.PDB
