^C:\USERS\KGITLITZ\DOCUMENTS\_ROOT\PROJECTS\CPP\AG121_LAB01_SCORES_OOP\AG121_LAB01_SCORES_OOP\AG121_LAB01_SCORES_OOP.CPP
/c /ZI /nologo /W3 /WX- /Od /Oy- /D WIN32 /D _DEBUG /D _CONSOLE /D _UNICODE /D UNICODE /Gm /EHsc /RTC1 /MDd /GS /fp:precise /Zc:wchar_t /Zc:forScope /Fo"Debug\\" /Fd"Debug\vc100.pdb" /Gd /TP /analyze- /errorReport:prompt C:\USERS\KGITLITZ\DOCUMENTS\_ROOT\PROJECTS\CPP\AG121_LAB01_SCORES_OOP\AG121_LAB01_SCORES_OOP\AG121_LAB01_SCORES_OOP.CPP
^C:\USERS\NHTI\DESKTOP\AG121_LAB01_SCORES_OOP\AG121_LAB01_SCORES_OOP\AG121_LAB01_SCORES_OOP.CPP
/c /ZI /nologo /W3 /WX- /Od /Oy- /D WIN32 /D _DEBUG /D _CONSOLE /D _UNICODE /D UNICODE /Gm /EHsc /RTC1 /MDd /GS /fp:precise /Zc:wchar_t /Zc:forScope /Fo"Debug\\" /Fd"Debug\vc100.pdb" /Gd /TP /analyze- /errorReport:prompt C:\USERS\NHTI\DESKTOP\AG121_LAB01_SCORES_OOP\AG121_LAB01_SCORES_OOP\AG121_LAB01_SCORES_OOP.CPP
