^C:\USERS\KGITLITZ\DOCUMENTS\_ROOT\PROJECTS\CPP\AG121_LAB01_SCORES_OOP\AG121_LAB01_SCORES_OOP\DEBUG\AG121_LAB01_SCORES_OOP_MANIFEST.RC
C:\USERS\KGITLITZ\DOCUMENTS\_ROOT\PROJECTS\CPP\AG121_LAB01_SCORES_OOP\AG121_LAB01_SCORES_OOP\DEBUG\AG121_LAB01_SCORES_OOP.EXE.EMBED.MANIFEST
^C:\USERS\NHTI\DESKTOP\AG121_LAB01_SCORES_OOP\AG121_LAB01_SCORES_OOP\DEBUG\AG121_LAB01_SCORES_OOP_MANIFEST.RC
C:\USERS\NHTI\DESKTOP\AG121_LAB01_SCORES_OOP\AG121_LAB01_SCORES_OOP\DEBUG\AG121_LAB01_SCORES_OOP.EXE.EMBED.MANIFEST
