^C:\USERS\MICHAEL\DOCUMENTS\VISUAL STUDIO 2015\PROJECTS\HW_1_LEIBNIZ_SERIES\HW_1_LEIBNIZ_SERIES\MAIN.CPP
/c /ZI /nologo /W3 /WX- /sdl /Od /Oy- /D WIN32 /D _DEBUG /D _CONSOLE /D _UNICODE /D UNICODE /Gm /EHsc /RTC1 /MDd /GS /fp:precise /Zc:wchar_t /Zc:forScope /Zc:inline /Fo"DEBUG\\" /Fd"DEBUG\VC140.PDB" /Gd /TP /analyze- C:\USERS\MICHAEL\DOCUMENTS\VISUAL STUDIO 2015\PROJECTS\HW_1_LEIBNIZ_SERIES\HW_1_LEIBNIZ_SERIES\MAIN.CPP
^C:\USERS\MICHAEL\DESKTOP\CP125\HOMEWORK\HW_1_LEIBNIZ_SERIES\HW_1_LEIBNIZ_SERIES\MAIN.CPP
/c /ZI /nologo /W3 /WX- /sdl /Od /Oy- /D WIN32 /D _DEBUG /D _CONSOLE /D _UNICODE /D UNICODE /Gm /EHsc /RTC1 /MDd /GS /fp:precise /Zc:wchar_t /Zc:forScope /Zc:inline /Fo"DEBUG\\" /Fd"DEBUG\VC140.PDB" /Gd /TP /analyze- C:\USERS\MICHAEL\DESKTOP\CP125\HOMEWORK\HW_1_LEIBNIZ_SERIES\HW_1_LEIBNIZ_SERIES\MAIN.CPP
