^C:\USERS\MICHAEL\DESKTOP\CP125\HOMEWORK\HW_1_LEIBNIZ_SERIES\HW_1_LEIBNIZ_SERIES\DEBUG\MAIN.OBJ
C:\USERS\MICHAEL\DESKTOP\CP125\HOMEWORK\HW_1_LEIBNIZ_SERIES\DEBUG\HW_1_LEIBNIZ_SERIES.ILK
C:\USERS\MICHAEL\DESKTOP\CP125\HOMEWORK\HW_1_LEIBNIZ_SERIES\DEBUG\HW_1_LEIBNIZ_SERIES.EXE
C:\USERS\MICHAEL\DESKTOP\CP125\HOMEWORK\HW_1_LEIBNIZ_SERIES\DEBUG\HW_1_LEIBNIZ_SERIES.PDB
