^C:\USERS\MICHAEL\DESKTOP\CP125\HOMEWORK\HW_4_LETTER_CIPHER\HW_4_LETTER_CIPHER\MAIN.CPP
C:\USERS\MICHAEL\DESKTOP\CP125\HOMEWORK\HW_4_LETTER_CIPHER\HW_4_LETTER_CIPHER\DEBUG\VC140.PDB
C:\USERS\MICHAEL\DESKTOP\CP125\HOMEWORK\HW_4_LETTER_CIPHER\HW_4_LETTER_CIPHER\DEBUG\VC140.IDB
C:\USERS\MICHAEL\DESKTOP\CP125\HOMEWORK\HW_4_LETTER_CIPHER\HW_4_LETTER_CIPHER\DEBUG\MAIN.OBJ
