^C:\USERS\MICHAEL\DESKTOP\CP125\LAB\LAB_08_WEEK_1\LAB_08_WEEK_1\EASYTREE.CPP
C:\USERS\MICHAEL\DESKTOP\CP125\LAB\LAB_08_WEEK_1\LAB_08_WEEK_1\DEBUG\VC140.PDB
C:\USERS\MICHAEL\DESKTOP\CP125\LAB\LAB_08_WEEK_1\LAB_08_WEEK_1\DEBUG\VC140.IDB
C:\USERS\MICHAEL\DESKTOP\CP125\LAB\LAB_08_WEEK_1\LAB_08_WEEK_1\DEBUG\EASYTREE.OBJ
