^C:\USERS\KGITLITZ\DOCUMENTS\_ROOT\PROJECTS\CPP\AG121_LAB02_FUNCTIONS\AG121_LAB02_FUNCTIONS\DEBUG\AG121_LAB02_FUNCTIONS.EXE.EMBED.MANIFEST.RES|C:\USERS\KGITLITZ\DOCUMENTS\_ROOT\PROJECTS\CPP\AG121_LAB02_FUNCTIONS\AG121_LAB02_FUNCTIONS\DEBUG\AG121_LAB02_FUNCTIONS_IMPLEMENTATION.OBJ|C:\USERS\KGITLITZ\DOCUMENTS\_ROOT\PROJECTS\CPP\AG121_LAB02_FUNCTIONS\AG121_LAB02_FUNCTIONS\DEBUG\AG121_LAB02_FUNCTIONS_TESTER.OBJ
C:\USERS\KGITLITZ\DOCUMENTS\_ROOT\PROJECTS\CPP\AG121_LAB02_FUNCTIONS\DEBUG\AG121_LAB02_FUNCTIONS.ILK
C:\USERS\KGITLITZ\DOCUMENTS\_ROOT\PROJECTS\CPP\AG121_LAB02_FUNCTIONS\DEBUG\AG121_LAB02_FUNCTIONS.EXE
C:\USERS\KGITLITZ\DOCUMENTS\_ROOT\PROJECTS\CPP\AG121_LAB02_FUNCTIONS\AG121_LAB02_FUNCTIONS\DEBUG\AG121_LAB02_FUNCTIONS.EXE.INTERMEDIATE.MANIFEST
C:\USERS\KGITLITZ\DOCUMENTS\_ROOT\PROJECTS\CPP\AG121_LAB02_FUNCTIONS\DEBUG\AG121_LAB02_FUNCTIONS.PDB
^C:\USERS\NHTI\DESKTOP\AG121_LAB02_FUNCTIONS\AG121_LAB02_FUNCTIONS\DEBUG\AG121_LAB02_FUNCTIONS.EXE.EMBED.MANIFEST.RES|C:\USERS\NHTI\DESKTOP\AG121_LAB02_FUNCTIONS\AG121_LAB02_FUNCTIONS\DEBUG\AG121_LAB02_FUNCTIONS_IMPLEMENTATION.OBJ|C:\USERS\NHTI\DESKTOP\AG121_LAB02_FUNCTIONS\AG121_LAB02_FUNCTIONS\DEBUG\AG121_LAB02_FUNCTIONS_TESTER.OBJ
C:\USERS\NHTI\DESKTOP\AG121_LAB02_FUNCTIONS\DEBUG\AG121_LAB02_FUNCTIONS.ILK
C:\USERS\NHTI\DESKTOP\AG121_LAB02_FUNCTIONS\DEBUG\AG121_LAB02_FUNCTIONS.EXE
C:\USERS\NHTI\DESKTOP\AG121_LAB02_FUNCTIONS\AG121_LAB02_FUNCTIONS\DEBUG\AG121_LAB02_FUNCTIONS.EXE.INTERMEDIATE.MANIFEST
C:\USERS\NHTI\DESKTOP\AG121_LAB02_FUNCTIONS\DEBUG\AG121_LAB02_FUNCTIONS.PDB
