^C:\USERS\KGITLITZ\DOCUMENTS\_ROOT\PROJECTS\CPP\AG121_LAB02_FUNCTIONS\AG121_LAB02_FUNCTIONS\DEBUG\AG121_LAB02_FUNCTIONS.EXE.EMBED.MANIFEST.RES|C:\USERS\KGITLITZ\DOCUMENTS\_ROOT\PROJECTS\CPP\AG121_LAB02_FUNCTIONS\AG121_LAB02_FUNCTIONS\DEBUG\AG121_LAB02_FUNCTIONS_IMPLEMENTATION.OBJ|C:\USERS\KGITLITZ\DOCUMENTS\_ROOT\PROJECTS\CPP\AG121_LAB02_FUNCTIONS\AG121_LAB02_FUNCTIONS\DEBUG\AG121_LAB02_FUNCTIONS_TESTER.OBJ
C:\PROGRAM FILES (X86)\MICROSOFT SDKS\WINDOWS\V7.0A\LIB\KERNEL32.LIB
C:\PROGRAM FILES (X86)\MICROSOFT SDKS\WINDOWS\V7.0A\LIB\USER32.LIB
C:\PROGRAM FILES (X86)\MICROSOFT SDKS\WINDOWS\V7.0A\LIB\GDI32.LIB
C:\PROGRAM FILES (X86)\MICROSOFT SDKS\WINDOWS\V7.0A\LIB\WINSPOOL.LIB
C:\PROGRAM FILES (X86)\MICROSOFT SDKS\WINDOWS\V7.0A\LIB\COMDLG32.LIB
C:\PROGRAM FILES (X86)\MICROSOFT SDKS\WINDOWS\V7.0A\LIB\ADVAPI32.LIB
C:\PROGRAM FILES (X86)\MICROSOFT SDKS\WINDOWS\V7.0A\LIB\SHELL32.LIB
C:\PROGRAM FILES (X86)\MICROSOFT SDKS\WINDOWS\V7.0A\LIB\OLE32.LIB
C:\PROGRAM FILES (X86)\MICROSOFT SDKS\WINDOWS\V7.0A\LIB\OLEAUT32.LIB
C:\PROGRAM FILES (X86)\MICROSOFT SDKS\WINDOWS\V7.0A\LIB\UUID.LIB
C:\PROGRAM FILES (X86)\MICROSOFT SDKS\WINDOWS\V7.0A\LIB\ODBC32.LIB
C:\PROGRAM FILES (X86)\MICROSOFT SDKS\WINDOWS\V7.0A\LIB\ODBCCP32.LIB
C:\USERS\KGITLITZ\DOCUMENTS\_ROOT\PROJECTS\CPP\AG121_LAB02_FUNCTIONS\AG121_LAB02_FUNCTIONS\DEBUG\AG121_LAB02_FUNCTIONS.EXE.EMBED.MANIFEST.RES
C:\USERS\KGITLITZ\DOCUMENTS\_ROOT\PROJECTS\CPP\AG121_LAB02_FUNCTIONS\AG121_LAB02_FUNCTIONS\DEBUG\AG121_LAB02_FUNCTIONS_IMPLEMENTATION.OBJ
C:\USERS\KGITLITZ\DOCUMENTS\_ROOT\PROJECTS\CPP\AG121_LAB02_FUNCTIONS\AG121_LAB02_FUNCTIONS\DEBUG\AG121_LAB02_FUNCTIONS_TESTER.OBJ
C:\WINDOWS\SYSTEM32\TZRES.DLL
C:\USERS\KGITLITZ\DOCUMENTS\_ROOT\PROJECTS\CPP\AG121_LAB02_FUNCTIONS\DEBUG\AG121_LAB02_FUNCTIONS.EXE
C:\USERS\KGITLITZ\DOCUMENTS\_ROOT\PROJECTS\CPP\AG121_LAB02_FUNCTIONS\DEBUG\AG121_LAB02_FUNCTIONS.PDB
C:\WINDOWS\GLOBALIZATION\SORTING\SORTDEFAULT.NLS
C:\PROGRAM FILES (X86)\MICROSOFT VISUAL STUDIO 10.0\VC\LIB\MSVCPRTD.LIB
C:\PROGRAM FILES (X86)\MICROSOFT VISUAL STUDIO 10.0\VC\LIB\MSVCRTD.LIB
C:\PROGRAM FILES (X86)\MICROSOFT VISUAL STUDIO 10.0\VC\LIB\OLDNAMES.LIB
^C:\USERS\NHTI\DESKTOP\AG121_LAB02_FUNCTIONS\AG121_LAB02_FUNCTIONS\DEBUG\AG121_LAB02_FUNCTIONS.EXE.EMBED.MANIFEST.RES|C:\USERS\NHTI\DESKTOP\AG121_LAB02_FUNCTIONS\AG121_LAB02_FUNCTIONS\DEBUG\AG121_LAB02_FUNCTIONS_IMPLEMENTATION.OBJ|C:\USERS\NHTI\DESKTOP\AG121_LAB02_FUNCTIONS\AG121_LAB02_FUNCTIONS\DEBUG\AG121_LAB02_FUNCTIONS_TESTER.OBJ
C:\PROGRAM FILES (X86)\MICROSOFT SDKS\WINDOWS\V7.0A\LIB\KERNEL32.LIB
C:\PROGRAM FILES (X86)\MICROSOFT SDKS\WINDOWS\V7.0A\LIB\USER32.LIB
C:\PROGRAM FILES (X86)\MICROSOFT SDKS\WINDOWS\V7.0A\LIB\GDI32.LIB
C:\PROGRAM FILES (X86)\MICROSOFT SDKS\WINDOWS\V7.0A\LIB\WINSPOOL.LIB
C:\PROGRAM FILES (X86)\MICROSOFT SDKS\WINDOWS\V7.0A\LIB\COMDLG32.LIB
C:\PROGRAM FILES (X86)\MICROSOFT SDKS\WINDOWS\V7.0A\LIB\ADVAPI32.LIB
C:\PROGRAM FILES (X86)\MICROSOFT SDKS\WINDOWS\V7.0A\LIB\SHELL32.LIB
C:\PROGRAM FILES (X86)\MICROSOFT SDKS\WINDOWS\V7.0A\LIB\OLE32.LIB
C:\PROGRAM FILES (X86)\MICROSOFT SDKS\WINDOWS\V7.0A\LIB\OLEAUT32.LIB
C:\PROGRAM FILES (X86)\MICROSOFT SDKS\WINDOWS\V7.0A\LIB\UUID.LIB
C:\PROGRAM FILES (X86)\MICROSOFT SDKS\WINDOWS\V7.0A\LIB\ODBC32.LIB
C:\PROGRAM FILES (X86)\MICROSOFT SDKS\WINDOWS\V7.0A\LIB\ODBCCP32.LIB
C:\USERS\NHTI\DESKTOP\AG121_LAB02_FUNCTIONS\AG121_LAB02_FUNCTIONS\DEBUG\AG121_LAB02_FUNCTIONS.EXE.EMBED.MANIFEST.RES
C:\USERS\NHTI\DESKTOP\AG121_LAB02_FUNCTIONS\AG121_LAB02_FUNCTIONS\DEBUG\AG121_LAB02_FUNCTIONS_IMPLEMENTATION.OBJ
C:\USERS\NHTI\DESKTOP\AG121_LAB02_FUNCTIONS\AG121_LAB02_FUNCTIONS\DEBUG\AG121_LAB02_FUNCTIONS_TESTER.OBJ
C:\WINDOWS\SYSTEM32\TZRES.DLL
C:\USERS\NHTI\DESKTOP\AG121_LAB02_FUNCTIONS\DEBUG\AG121_LAB02_FUNCTIONS.ILK
C:\USERS\NHTI\DESKTOP\AG121_LAB02_FUNCTIONS\DEBUG\AG121_LAB02_FUNCTIONS.EXE
C:\USERS\NHTI\DESKTOP\AG121_LAB02_FUNCTIONS\DEBUG\AG121_LAB02_FUNCTIONS.PDB
C:\WINDOWS\GLOBALIZATION\SORTING\SORTDEFAULT.NLS
C:\PROGRAM FILES (X86)\MICROSOFT VISUAL STUDIO 10.0\VC\LIB\MSVCPRTD.LIB
C:\PROGRAM FILES (X86)\MICROSOFT VISUAL STUDIO 10.0\VC\LIB\MSVCRTD.LIB
C:\PROGRAM FILES (X86)\MICROSOFT VISUAL STUDIO 10.0\VC\LIB\OLDNAMES.LIB
