^C:\USERS\KGITLITZ\DOCUMENTS\_ROOT\PROJECTS\CPP\AG121_LAB02_FUNCTIONS\AG121_LAB02_FUNCTIONS\DEBUG\AG121_LAB02_FUNCTIONS_MANIFEST.RC
C:\USERS\KGITLITZ\DOCUMENTS\_ROOT\PROJECTS\CPP\AG121_LAB02_FUNCTIONS\AG121_LAB02_FUNCTIONS\DEBUG\AG121_LAB02_FUNCTIONS.EXE.EMBED.MANIFEST
^C:\USERS\NHTI\DESKTOP\AG121_LAB02_FUNCTIONS\AG121_LAB02_FUNCTIONS\DEBUG\AG121_LAB02_FUNCTIONS_MANIFEST.RC
C:\USERS\NHTI\DESKTOP\AG121_LAB02_FUNCTIONS\AG121_LAB02_FUNCTIONS\DEBUG\AG121_LAB02_FUNCTIONS.EXE.EMBED.MANIFEST
