^C:\USERS\MICHAEL\DESKTOP\CP125\LAB\LAB_10_PART_2\LAB_10_PART_2\DEBUG\MAIN.OBJ
C:\USERS\MICHAEL\DESKTOP\CP125\LAB\LAB_10_PART_2\DEBUG\LAB_10_PART_2.ILK
C:\USERS\MICHAEL\DESKTOP\CP125\LAB\LAB_10_PART_2\DEBUG\LAB_10_PART_2.EXE
C:\USERS\MICHAEL\DESKTOP\CP125\LAB\LAB_10_PART_2\DEBUG\LAB_10_PART_2.PDB
^C:\USERS\MICHAEL\DESKTOP\CP125\LAB\LAB 10\LAB_10_PART_2\LAB_10_PART_2\DEBUG\MAIN.OBJ
C:\USERS\MICHAEL\DESKTOP\CP125\LAB\LAB 10\LAB_10_PART_2\DEBUG\LAB_10_PART_2.ILK
C:\USERS\MICHAEL\DESKTOP\CP125\LAB\LAB 10\LAB_10_PART_2\DEBUG\LAB_10_PART_2.EXE
C:\USERS\MICHAEL\DESKTOP\CP125\LAB\LAB 10\LAB_10_PART_2\DEBUG\LAB_10_PART_2.PDB
