^C:\USERS\KGITLITZ\DOCUMENTS\_ROOT\PROJECTS\CPP\TREES\AVLTREE\AVLTREE\AVLTREE.CPP
C:\USERS\KGITLITZ\DOCUMENTS\_ROOT\PROJECTS\CPP\TREES\AVLTREE\AVLTREE\DEBUG\VC100.PDB
C:\USERS\KGITLITZ\DOCUMENTS\_ROOT\PROJECTS\CPP\TREES\AVLTREE\AVLTREE\DEBUG\AVLTREE.OBJ
