#Command: "C:\Program Files (x86)\Microsoft Visual Studio\2017\Enterprise\VC\Tools\MSVC\14.10.25017\bin\HostX86\x86\link.exe" /ERRORREPORT:PROMPT @C:\Users\NHTI\AppData\Local\Temp\tmpa3f1409f55db48ef9b45edd4b3190869.rsp
^F:\CPET_125\LAB\LAB_09\LAB_09\DEBUG\BINARYTREE.OBJ|F:\CPET_125\LAB\LAB_09\LAB_09\DEBUG\TREEPRINTER.OBJ
F:\CPET_125\LAB\LAB_09\DEBUG\LAB_09.PDB
