^C:\USERS\MICHAEL\DESKTOP\CP125\LAB\LAB_09\LAB_09\DEBUG\BINARYTREE.OBJ|C:\USERS\MICHAEL\DESKTOP\CP125\LAB\LAB_09\LAB_09\DEBUG\TREEPRINTER.OBJ
/OUT:"C:\USERS\MICHAEL\DESKTOP\CP125\LAB\LAB_09\DEBUG\LAB_09.EXE" /INCREMENTAL /NOLOGO KERNEL32.LIB USER32.LIB GDI32.LIB WINSPOOL.LIB COMDLG32.LIB ADVAPI32.LIB SHELL32.LIB OLE32.LIB OLEAUT32.LIB UUID.LIB ODBC32.LIB ODBCCP32.LIB /MANIFEST /MANIFESTUAC:"level='asInvoker' uiAccess='false'" /manifest:embed /Debug /PDB:"C:\USERS\MICHAEL\DESKTOP\CP125\LAB\LAB_09\DEBUG\LAB_09.PDB" /SUBSYSTEM:CONSOLE /TLBID:1 /DYNAMICBASE /NXCOMPAT /IMPLIB:"C:\USERS\MICHAEL\DESKTOP\CP125\LAB\LAB_09\DEBUG\LAB_09.LIB" /MACHINE:X86 DEBUG\BINARYTREE.OBJDEBUG\TREEPRINTER.OBJ
^F:\CPET_125\LAB\LAB_09\LAB_09\DEBUG\BINARYTREE.OBJ|F:\CPET_125\LAB\LAB_09\LAB_09\DEBUG\TREEPRINTER.OBJ
/OUT:"F:\CPET_125\LAB\LAB_09\DEBUG\LAB_09.EXE" /INCREMENTAL /NOLOGO KERNEL32.LIB USER32.LIB GDI32.LIB WINSPOOL.LIB COMDLG32.LIB ADVAPI32.LIB SHELL32.LIB OLE32.LIB OLEAUT32.LIB UUID.LIB ODBC32.LIB ODBCCP32.LIB /MANIFEST /MANIFESTUAC:"level='asInvoker' uiAccess='false'" /manifest:embed /DEBUG:FASTLINK /PDB:"F:\CPET_125\LAB\LAB_09\DEBUG\LAB_09.PDB" /SUBSYSTEM:CONSOLE /TLBID:1 /DYNAMICBASE /NXCOMPAT /IMPLIB:"F:\CPET_125\LAB\LAB_09\DEBUG\LAB_09.LIB" /MACHINE:X86 DEBUG\BINARYTREE.OBJDEBUG\TREEPRINTER.OBJ
