^D:\MIKE\LAB_05\LAB_05\SORTTESTER.CPP
D:\MIKE\LAB_05\LAB_05\DEBUG\VC120.PDB
D:\MIKE\LAB_05\LAB_05\DEBUG\VC120.IDB
^D:\MIKE\LAB_05\LAB_05\PERSON.CPP|D:\MIKE\LAB_05\LAB_05\RECT.CPP|D:\MIKE\LAB_05\LAB_05\SORTTESTER.CPP
D:\MIKE\LAB_05\LAB_05\DEBUG\VC120.PDB
D:\MIKE\LAB_05\LAB_05\DEBUG\VC120.IDB
D:\MIKE\LAB_05\LAB_05\DEBUG\PERSON.OBJ
D:\MIKE\LAB_05\LAB_05\DEBUG\RECT.OBJ
D:\MIKE\LAB_05\LAB_05\DEBUG\SORTTESTER.OBJ
^D:\MIKE\LAB_05\LAB_05\PERSON.CPP
D:\MIKE\LAB_05\LAB_05\DEBUG\VC120.PDB
^D:\MIKE\LAB_05\LAB_05\RECT.CPP
D:\MIKE\LAB_05\LAB_05\DEBUG\VC120.PDB
^D:\MIKE\LAB_05\LAB_05\RECT.CPP|D:\MIKE\LAB_05\LAB_05\SORTTESTER.CPP
D:\MIKE\LAB_05\LAB_05\DEBUG\VC120.PDB
D:\MIKE\LAB_05\LAB_05\DEBUG\VC120.IDB
^C:\USERS\MICHAEL\DESKTOP\CP125\LAB\LAB_05\LAB_05\LAB_05\PERSON.CPP|C:\USERS\MICHAEL\DESKTOP\CP125\LAB\LAB_05\LAB_05\LAB_05\RECT.CPP|C:\USERS\MICHAEL\DESKTOP\CP125\LAB\LAB_05\LAB_05\LAB_05\SORTTESTER.CPP
C:\USERS\MICHAEL\DESKTOP\CP125\LAB\LAB_05\LAB_05\LAB_05\DEBUG\VC140.PDB
C:\USERS\MICHAEL\DESKTOP\CP125\LAB\LAB_05\LAB_05\LAB_05\DEBUG\VC140.IDB
C:\USERS\MICHAEL\DESKTOP\CP125\LAB\LAB_05\LAB_05\LAB_05\DEBUG\PERSON.OBJ
C:\USERS\MICHAEL\DESKTOP\CP125\LAB\LAB_05\LAB_05\LAB_05\DEBUG\RECT.OBJ
C:\USERS\MICHAEL\DESKTOP\CP125\LAB\LAB_05\LAB_05\LAB_05\DEBUG\SORTTESTER.OBJ
^C:\USERS\MICHAEL\DESKTOP\CP125\LAB\LAB_05\LAB_05\LAB_05\PERSON.CPP
C:\USERS\MICHAEL\DESKTOP\CP125\LAB\LAB_05\LAB_05\LAB_05\DEBUG\VC140.PDB
^C:\USERS\MICHAEL\DESKTOP\CP125\LAB\LAB_05\LAB_05\LAB_05\RECT.CPP
C:\USERS\MICHAEL\DESKTOP\CP125\LAB\LAB_05\LAB_05\LAB_05\DEBUG\VC140.PDB
^C:\USERS\MICHAEL\DESKTOP\CP125\LAB\LAB_05\LAB_05\LAB_05\SORTTESTER.CPP
C:\USERS\MICHAEL\DESKTOP\CP125\LAB\LAB_05\LAB_05\LAB_05\DEBUG\VC140.PDB
