﻿Build started 2/12/2016 3:02:29 PM.
     1>Project "F:\Lab03_SP2012\AG121_Lab03_DynamicArray\AG121_Lab03_DynamicArray\AG121_Lab03_DynamicArray.vcxproj" on node 2 (Build target(s)).
     1>InitializeBuildStatus:
         Creating "Debug\AG121_La.C961E4E8.tlog\unsuccessfulbuild" because "AlwaysCreate" was specified.
       ClCompile:
         C:\Program Files (x86)\Microsoft Visual Studio 12.0\VC\bin\CL.exe /c /ZI /nologo /W3 /WX- /Od /Oy- /D WIN32 /D _DEBUG /D _CONSOLE /D _UNICODE /D UNICODE /Gm /EHsc /RTC1 /MDd /GS /fp:precise /Zc:wchar_t /Zc:forScope /Fo"Debug\\" /Fd"Debug\vc120.pdb" /Gd /TP /analyze- /errorReport:prompt AG121_Lab03_DynamicArray.cpp easyArray.cpp
         easyArray.cpp
     1>f:\lab03_sp2012\ag121_lab03_dynamicarray\ag121_lab03_dynamicarray\easyarray.cpp(16): warning C4018: '<' : signed/unsigned mismatch
     1>f:\lab03_sp2012\ag121_lab03_dynamicarray\ag121_lab03_dynamicarray\easyarray.cpp(60): warning C4018: '<' : signed/unsigned mismatch
     1>f:\lab03_sp2012\ag121_lab03_dynamicarray\ag121_lab03_dynamicarray\easyarray.cpp(106): warning C4018: '<' : signed/unsigned mismatch
     1>f:\lab03_sp2012\ag121_lab03_dynamicarray\ag121_lab03_dynamicarray\easyarray.cpp(116): warning C4018: '>' : signed/unsigned mismatch
         AG121_Lab03_DynamicArray.cpp
         Generating Code...
     1>f:\lab03_sp2012\ag121_lab03_dynamicarray\ag121_lab03_dynamicarray\easyarray.cpp(164): warning C4715: 'easyArray::operator=' : not all control paths return a value
       Link:
         C:\Program Files (x86)\Microsoft Visual Studio 12.0\VC\bin\link.exe /ERRORREPORT:PROMPT /OUT:"F:\Lab03_SP2012\AG121_Lab03_DynamicArray\Debug\AG121_Lab03_DynamicArray.exe" /INCREMENTAL /NOLOGO kernel32.lib user32.lib gdi32.lib winspool.lib comdlg32.lib advapi32.lib shell32.lib ole32.lib oleaut32.lib uuid.lib odbc32.lib odbccp32.lib /MANIFEST /MANIFESTUAC:"level='asInvoker' uiAccess='false'" /manifest:embed /DEBUG /PDB:"F:\Lab03_SP2012\AG121_Lab03_DynamicArray\Debug\AG121_Lab03_DynamicArray.pdb" /SUBSYSTEM:CONSOLE /TLBID:1 /DYNAMICBASE /NXCOMPAT /IMPLIB:"F:\Lab03_SP2012\AG121_Lab03_DynamicArray\Debug\AG121_Lab03_DynamicArray.lib" /MACHINE:X86 Debug\AG121_Lab03_DynamicArray.obj
         Debug\easyArray.obj
         LINK : F:\Lab03_SP2012\AG121_Lab03_DynamicArray\Debug\AG121_Lab03_DynamicArray.exe not found or not built by the last incremental link; performing full link
         AG121_Lab03_DynamicArray.vcxproj -> F:\Lab03_SP2012\AG121_Lab03_DynamicArray\Debug\AG121_Lab03_DynamicArray.exe
       FinalizeBuildStatus:
         Deleting file "Debug\AG121_La.C961E4E8.tlog\unsuccessfulbuild".
         Touching "Debug\AG121_La.C961E4E8.tlog\AG121_Lab03_DynamicArray.lastbuildstate".
     1>Done Building Project "F:\Lab03_SP2012\AG121_Lab03_DynamicArray\AG121_Lab03_DynamicArray\AG121_Lab03_DynamicArray.vcxproj" (Build target(s)).

Build succeeded.

Time Elapsed 00:00:08.90
